…
It seems a few individuals have worked for different employees at different points in time.

Create personnel exit flag

personnel <- personnel %>%
  group_by(execid, gvkey) %>%
  arrange(execid, year, gvkey) %>%
  mutate(exit = row_number() == n())

subset(personnel, execid %in% unique(personnel$execid)[1:3], select = c("gvkey", "name", "execid", "exit"))

## # A tibble: 23 x 4
## # Groups:   execid, gvkey [3]
##    gvkey  name                  execid exit 
##    <chr>  <chr>                 <chr>  <lgl>
##  1 025338 Bed Bath & Beyond Inc 00117  FALSE
##  2 025338 Bed Bath & Beyond Inc 00117  FALSE
##  3 025338 Bed Bath & Beyond Inc 00117  FALSE
##  4 025338 Bed Bath & Beyond Inc 00117  FALSE
##  5 025338 Bed Bath & Beyond Inc 00117  FALSE
##  6 025338 Bed Bath & Beyond Inc 00117  FALSE
##  7 025338 Bed Bath & Beyond Inc 00117  FALSE
##  8 025338 Bed Bath & Beyond Inc 00117  FALSE
##  9 025338 Bed Bath & Beyond Inc 00117  FALSE
## 10 025338 Bed Bath & Beyond Inc 00117  TRUE 
## #  with 13 more rows
…
